^C:\USERS\NATE\DESKTOP\SENIOR PROJECT\ENGINE\ENGINE\FMODEX_VC.LIB|C:\USERS\NATE\DESKTOP\SENIOR PROJECT\ENGINE\ENGINE\RELEASE\ACIDEFFECT.OBJ|C:\USERS\NATE\DESKTOP\SENIOR PROJECT\ENGINE\ENGINE\RELEASE\ACTOR.OBJ|C:\USERS\NATE\DESKTOP\SENIOR PROJECT\ENGINE\ENGINE\RELEASE\AIHANDLER.OBJ|C:\USERS\NATE\DESKTOP\SENIOR PROJECT\ENGINE\ENGINE\RELEASE\AUDIOMANAGER.OBJ|C:\USERS\NATE\DESKTOP\SENIOR PROJECT\ENGINE\ENGINE\RELEASE\BLOODEFFECT.OBJ|C:\USERS\NATE\DESKTOP\SENIOR PROJECT\ENGINE\ENGINE\RELEASE\CAMERA.OBJ|C:\USERS\NATE\DESKTOP\SENIOR PROJECT\ENGINE\ENGINE\RELEASE\DX9RENDERER.OBJ|C:\USERS\NATE\DESKTOP\SENIOR PROJECT\ENGINE\ENGINE\RELEASE\DX9STRUCTS.OBJ|C:\USERS\NATE\DESKTOP\SENIOR PROJECT\ENGINE\ENGINE\RELEASE\ENEMY.OBJ|C:\USERS\NATE\DESKTOP\SENIOR PROJECT\ENGINE\ENGINE\RELEASE\ENTITY.OBJ|C:\USERS\NATE\DESKTOP\SENIOR PROJECT\ENGINE\ENGINE\RELEASE\ENTITYMANAGER.OBJ|C:\USERS\NATE\DESKTOP\SENIOR PROJECT\ENGINE\ENGINE\RELEASE\FLAMETHROWEREFFECT.OBJ|C:\USERS\NATE\DESKTOP\SENIOR PROJECT\ENGINE\ENGINE\RELEASE\FREEZEEFFECT.OBJ|C:\USERS\NATE\DESKTOP\SENIOR PROJECT\ENGINE\ENGINE\RELEASE\GAMEOBJECT.OBJ|C:\USERS\NATE\DESKTOP\SENIOR PROJECT\ENGINE\ENGINE\RELEASE\GAMETIMER.OBJ|C:\USERS\NATE\DESKTOP\SENIOR PROJECT\ENGINE\ENGINE\RELEASE\HAVOK.OBJ|C:\USERS\NATE\DESKTOP\SENIOR PROJECT\ENGINE\ENGINE\RELEASE\INPUTMANAGER.OBJ|C:\USERS\NATE\DESKTOP\SENIOR PROJECT\ENGINE\ENGINE\RELEASE\LUAOBJECT.OBJ|C:\USERS\NATE\DESKTOP\SENIOR PROJECT\ENGINE\ENGINE\RELEASE\MOVINGACTOR.OBJ|C:\USERS\NATE\DESKTOP\SENIOR PROJECT\ENGINE\ENGINE\RELEASE\MYCONTACTSTATELISTENER.OBJ|C:\USERS\NATE\DESKTOP\SENIOR PROJECT\ENGINE\ENGINE\RELEASE\PARTICLEEFFECT.OBJ|C:\USERS\NATE\DESKTOP\SENIOR PROJECT\ENGINE\ENGINE\RELEASE\PLATFORMMANAGER.OBJ|C:\USERS\NATE\DESKTOP\SENIOR PROJECT\ENGINE\ENGINE\RELEASE\PLAYER.OBJ|C:\USERS\NATE\DESKTOP\SENIOR PROJECT\ENGINE\ENGINE\RELEASE\PROJECTILE.OBJ|C:\USERS\NATE\DESKTOP\SENIOR PROJECT\ENGINE\ENGINE\RELEASE\SKINNEDMESH.OBJ|C:\USERS\NATE\DESKTOP\SENIOR PROJECT\ENGINE\ENGINE\RELEASE\SKYBOX.OBJ|C:\USERS\NATE\DESKTOP\SENIOR PROJECT\ENGINE\ENGINE\RELEASE\SOUNDEFFECT.OBJ|C:\USERS\NATE\DESKTOP\SENIOR PROJECT\ENGINE\ENGINE\RELEASE\SOUNDLOADER.OBJ|C:\USERS\NATE\DESKTOP\SENIOR PROJECT\ENGINE\ENGINE\RELEASE\TRIGGER.OBJ|C:\USERS\NATE\DESKTOP\SENIOR PROJECT\ENGINE\ENGINE\RELEASE\USERINTERFACE.OBJ|C:\USERS\NATE\DESKTOP\SENIOR PROJECT\ENGINE\ENGINE\RELEASE\WEAPON.OBJ|C:\USERS\NATE\DESKTOP\SENIOR PROJECT\ENGINE\ENGINE\RELEASE\WEAPONSTATION.OBJ|C:\USERS\NATE\DESKTOP\SENIOR PROJECT\ENGINE\ENGINE\RELEASE\WINMAIN.OBJ
C:\PROGRAM FILES (X86)\HAVOK\HK2012_1_0_R1\LIB\WIN32_VS2010\RELEASE_MULTITHREADED_DLL\HKBASE.LIB
C:\PROGRAM FILES (X86)\HAVOK\HK2012_1_0_R1\LIB\WIN32_VS2010\RELEASE_MULTITHREADED_DLL\HKCOMPAT.LIB
C:\PROGRAM FILES (X86)\HAVOK\HK2012_1_0_R1\LIB\WIN32_VS2010\RELEASE_MULTITHREADED_DLL\HKGEOMETRYUTILITIES.LIB
C:\PROGRAM FILES (X86)\HAVOK\HK2012_1_0_R1\LIB\WIN32_VS2010\RELEASE_MULTITHREADED_DLL\HKINTERNAL.LIB
C:\PROGRAM FILES (X86)\HAVOK\HK2012_1_0_R1\LIB\WIN32_VS2010\RELEASE_MULTITHREADED_DLL\HKSCENEDATA.LIB
C:\PROGRAM FILES (X86)\HAVOK\HK2012_1_0_R1\LIB\WIN32_VS2010\RELEASE_MULTITHREADED_DLL\HKSERIALIZE.LIB
C:\PROGRAM FILES (X86)\HAVOK\HK2012_1_0_R1\LIB\WIN32_VS2010\RELEASE_MULTITHREADED_DLL\HKVISUALIZE.LIB
C:\PROGRAM FILES (X86)\HAVOK\HK2012_1_0_R1\LIB\WIN32_VS2010\RELEASE_MULTITHREADED_DLL\HKPCONSTRAINTSOLVER.LIB
C:\PROGRAM FILES (X86)\HAVOK\HK2012_1_0_R1\LIB\WIN32_VS2010\RELEASE_MULTITHREADED_DLL\HKPCOLLIDE.LIB
C:\PROGRAM FILES (X86)\HAVOK\HK2012_1_0_R1\LIB\WIN32_VS2010\RELEASE_MULTITHREADED_DLL\HKPDYNAMICS.LIB
C:\PROGRAM FILES (X86)\HAVOK\HK2012_1_0_R1\LIB\WIN32_VS2010\RELEASE_MULTITHREADED_DLL\HKPINTERNAL.LIB
C:\PROGRAM FILES (X86)\HAVOK\HK2012_1_0_R1\LIB\WIN32_VS2010\RELEASE_MULTITHREADED_DLL\HKPUTILITIES.LIB
C:\PROGRAM FILES (X86)\HAVOK\HK2012_1_0_R1\LIB\WIN32_VS2010\RELEASE_MULTITHREADED_DLL\HKPVEHICLE.LIB
C:\PROGRAM FILES (X86)\HAVOK\HK2012_1_0_R1\LIB\WIN32_VS2010\RELEASE_MULTITHREADED_DLL\HKCDCOLLIDE.LIB
C:\PROGRAM FILES (X86)\HAVOK\HK2012_1_0_R1\LIB\WIN32_VS2010\RELEASE_MULTITHREADED_DLL\HKCDINTERNAL.LIB
C:\PROGRAM FILES (X86)\MICROSOFT SDKS\WINDOWS\V7.0A\LIB\KERNEL32.LIB
C:\PROGRAM FILES (X86)\MICROSOFT SDKS\WINDOWS\V7.0A\LIB\USER32.LIB
C:\PROGRAM FILES (X86)\MICROSOFT SDKS\WINDOWS\V7.0A\LIB\GDI32.LIB
C:\PROGRAM FILES (X86)\MICROSOFT SDKS\WINDOWS\V7.0A\LIB\WINSPOOL.LIB
C:\PROGRAM FILES (X86)\MICROSOFT SDKS\WINDOWS\V7.0A\LIB\COMDLG32.LIB
C:\PROGRAM FILES (X86)\MICROSOFT SDKS\WINDOWS\V7.0A\LIB\ADVAPI32.LIB
C:\PROGRAM FILES (X86)\MICROSOFT SDKS\WINDOWS\V7.0A\LIB\SHELL32.LIB
C:\PROGRAM FILES (X86)\MICROSOFT SDKS\WINDOWS\V7.0A\LIB\OLE32.LIB
C:\PROGRAM FILES (X86)\MICROSOFT SDKS\WINDOWS\V7.0A\LIB\OLEAUT32.LIB
C:\PROGRAM FILES (X86)\MICROSOFT SDKS\WINDOWS\V7.0A\LIB\UUID.LIB
C:\PROGRAM FILES (X86)\MICROSOFT SDKS\WINDOWS\V7.0A\LIB\ODBC32.LIB
C:\PROGRAM FILES (X86)\MICROSOFT SDKS\WINDOWS\V7.0A\LIB\ODBCCP32.LIB
C:\USERS\NATE\DESKTOP\SENIOR PROJECT\ENGINE\ENGINE\RELEASE\ACIDEFFECT.OBJ
C:\USERS\NATE\DESKTOP\SENIOR PROJECT\ENGINE\ENGINE\RELEASE\ACTOR.OBJ
C:\USERS\NATE\DESKTOP\SENIOR PROJECT\ENGINE\ENGINE\RELEASE\AIHANDLER.OBJ
C:\USERS\NATE\DESKTOP\SENIOR PROJECT\ENGINE\ENGINE\RELEASE\AUDIOMANAGER.OBJ
C:\USERS\NATE\DESKTOP\SENIOR PROJECT\ENGINE\ENGINE\RELEASE\BLOODEFFECT.OBJ
C:\USERS\NATE\DESKTOP\SENIOR PROJECT\ENGINE\ENGINE\RELEASE\CAMERA.OBJ
C:\USERS\NATE\DESKTOP\SENIOR PROJECT\ENGINE\ENGINE\RELEASE\DX9STRUCTS.OBJ
C:\USERS\NATE\DESKTOP\SENIOR PROJECT\ENGINE\ENGINE\RELEASE\DX9RENDERER.OBJ
C:\USERS\NATE\DESKTOP\SENIOR PROJECT\ENGINE\ENGINE\RELEASE\ENTITY.OBJ
C:\USERS\NATE\DESKTOP\SENIOR PROJECT\ENGINE\ENGINE\RELEASE\ENTITYMANAGER.OBJ
C:\USERS\NATE\DESKTOP\SENIOR PROJECT\ENGINE\ENGINE\RELEASE\FLAMETHROWEREFFECT.OBJ
C:\USERS\NATE\DESKTOP\SENIOR PROJECT\ENGINE\ENGINE\RELEASE\FREEZEEFFECT.OBJ
C:\USERS\NATE\DESKTOP\SENIOR PROJECT\ENGINE\ENGINE\RELEASE\GAMEOBJECT.OBJ
C:\USERS\NATE\DESKTOP\SENIOR PROJECT\ENGINE\ENGINE\RELEASE\GAMETIMER.OBJ
C:\USERS\NATE\DESKTOP\SENIOR PROJECT\ENGINE\ENGINE\RELEASE\HAVOK.OBJ
C:\USERS\NATE\DESKTOP\SENIOR PROJECT\ENGINE\ENGINE\RELEASE\INPUTMANAGER.OBJ
C:\USERS\NATE\DESKTOP\SENIOR PROJECT\ENGINE\ENGINE\RELEASE\ENEMY.OBJ
C:\USERS\NATE\DESKTOP\SENIOR PROJECT\ENGINE\ENGINE\RELEASE\LUAOBJECT.OBJ
C:\USERS\NATE\DESKTOP\SENIOR PROJECT\ENGINE\ENGINE\RELEASE\MOVINGACTOR.OBJ
C:\USERS\NATE\DESKTOP\SENIOR PROJECT\ENGINE\ENGINE\RELEASE\MYCONTACTSTATELISTENER.OBJ
C:\USERS\NATE\DESKTOP\SENIOR PROJECT\ENGINE\ENGINE\RELEASE\PARTICLEEFFECT.OBJ
C:\USERS\NATE\DESKTOP\SENIOR PROJECT\ENGINE\ENGINE\RELEASE\PLATFORMMANAGER.OBJ
C:\USERS\NATE\DESKTOP\SENIOR PROJECT\ENGINE\ENGINE\RELEASE\PLAYER.OBJ
C:\USERS\NATE\DESKTOP\SENIOR PROJECT\ENGINE\ENGINE\RELEASE\PROJECTILE.OBJ
C:\USERS\NATE\DESKTOP\SENIOR PROJECT\ENGINE\ENGINE\RELEASE\SKINNEDMESH.OBJ
C:\USERS\NATE\DESKTOP\SENIOR PROJECT\ENGINE\ENGINE\RELEASE\SKYBOX.OBJ
C:\USERS\NATE\DESKTOP\SENIOR PROJECT\ENGINE\ENGINE\RELEASE\SOUNDEFFECT.OBJ
C:\USERS\NATE\DESKTOP\SENIOR PROJECT\ENGINE\ENGINE\RELEASE\SOUNDLOADER.OBJ
C:\USERS\NATE\DESKTOP\SENIOR PROJECT\ENGINE\ENGINE\RELEASE\TRIGGER.OBJ
C:\USERS\NATE\DESKTOP\SENIOR PROJECT\ENGINE\ENGINE\RELEASE\USERINTERFACE.OBJ
C:\USERS\NATE\DESKTOP\SENIOR PROJECT\ENGINE\ENGINE\RELEASE\WEAPON.OBJ
C:\USERS\NATE\DESKTOP\SENIOR PROJECT\ENGINE\ENGINE\RELEASE\WEAPONSTATION.OBJ
C:\USERS\NATE\DESKTOP\SENIOR PROJECT\ENGINE\ENGINE\RELEASE\WINMAIN.OBJ
C:\USERS\NATE\DESKTOP\SENIOR PROJECT\ENGINE\ENGINE\FMODEX_VC.LIB
C:\WINDOWS\GLOBALIZATION\SORTING\SORTDEFAULT.NLS
C:\PROGRAM FILES (X86)\MICROSOFT VISUAL STUDIO 10.0\VC\BIN\C2.DLL
C:\PROGRAM FILES (X86)\MICROSOFT DIRECTX SDK (JUNE 2010)\LIB\X86\D3D9.LIB
C:\PROGRAM FILES (X86)\MICROSOFT DIRECTX SDK (JUNE 2010)\LIB\X86\D3DX9.LIB
C:\PROGRAM FILES (X86)\MICROSOFT VISUAL STUDIO 10.0\VC\LIB\MSVCPRT.LIB
C:\PROGRAM FILES (X86)\MICROSOFT VISUAL STUDIO 10.0\VC\LIB\MSVCRT.LIB
C:\PROGRAM FILES (X86)\MICROSOFT VISUAL STUDIO 10.0\VC\LIB\OLDNAMES.LIB
C:\PROGRAM FILES (X86)\MICROSOFT SDKS\WINDOWS\V7.0A\LIB\WINMM.LIB
C:\PROGRAM FILES (X86)\MICROSOFT DIRECTX SDK (JUNE 2010)\LIB\X86\DINPUT8.LIB
C:\PROGRAM FILES (X86)\MICROSOFT DIRECTX SDK (JUNE 2010)\LIB\X86\DXGUID.LIB
C:\PROGRAM FILES (X86)\MICROSOFT DIRECTX SDK (JUNE 2010)\LIB\X86\XINPUT.LIB
C:\USERS\NATE\DESKTOP\SENIOR PROJECT\ENGINE\ENGINE\ASSETS\LUA\LIB\LUA5.1.LIB
C:\USERS\NATE\DESKTOP\SENIOR PROJECT\ENGINE\ENGINE\ASSETS\LUA\LIB\LUA51.LIB
C:\PROGRAM FILES (X86)\MICROSOFT SDKS\WINDOWS\V7.0A\LIB\WSOCK32.LIB
C:\PROGRAM FILES (X86)\MICROSOFT VISUAL STUDIO 10.0\VC\BIN\1033\LINKUI.DLL
C:\PROGRAM FILES (X86)\MICROSOFT VISUAL STUDIO 10.0\VC\BIN\1033\CLUI.DLL
C:\WINDOWS\SYSTEM32\TZRES.DLL
